{
  "data": [
    {
      "id": 2,
      "type": "Office2",
      "name": "My Location2",
      "description": "My Location Description2",
      "phone": "0400111002",
      "email": "test2@omneo.io",
      "external_id": null,
      "is_published": false,
      "is_permanently_closed": true,
      "address": {
        "id": 3,
        "address_line_1": "address_line_12",
        "address_line_2": "address_line_22",
        "address_line_3": "address_line_32",
        "company": "Company2",
        "latitude": -37.8122382,
        "longitude": 144.9618112,
        "city": "Melbourne2",
        "postcode": "3002",
        "state": "TAS",
        "country": "AU",
        "notes": "notes2",
        "is_default": false,
        "created_at": "2018-05-24 04:43:11",
        "updated_at": "2018-05-24 05:49:45"
      },
      "normal_hours": [
        {
          "id": 3,
          "location_id": 2,
          "day_of_week": "TUE",
          "open_at": "09:02",
          "close_at": "17:02",
          "created_at": "2018-05-24 05:49:45",
          "updated_at": "2018-05-24 05:49:45"
        }
      ],
      "special_hours": [
        {
          "id": 3,
          "location_id": 2,
          "name": "Christmas2",
          "is_repeating": 0,
          "open_at": "10:02",
          "close_at": "16:03",
          "start_at": "2017-02-22 00:00:00",
          "end_at": "2017-02-22 00:00:00",
          "created_at": "2018-05-24 05:49:45",
          "updated_at": "2018-05-24 05:49:45"
        }
      ],
      "tags": [
        "Office2",
        "Formal2"
      ],
      "created_at": "2018-05-24 04:43:11",
      "updated_at": "2018-05-24 05:49:45"
    },
    {
      "id": 11,
      "type": null,
      "name": "Melbourne City VIC",
      "description": null,
      "phone": "unknown",
      "email": "unknown@example.com",
      "external_id": "4656",
      "is_published": false,
      "is_permanently_closed": false,
      "address": {
        "id": 12,
        "address_line_1": "27 George Parade",
        "address_line_2": "unknown",
        "address_line_3": null,
        "company": null,
        "latitude": null,
        "longitude": null,
        "city": "Melbourne",
        "postcode": "3000",
        "state": "VIC",
        "country": "Australia",
        "notes": null,
        "is_default": false,
        "created_at": "2018-05-26 05:24:46",
        "updated_at": "2018-05-26 06:33:13"
      },
      "normal_hours": [],
      "special_hours": [],
      "tags": [],
      "created_at": "2018-05-26 05:24:46",
      "updated_at": "2018-05-26 06:33:13"
    },
    {
      "id": 12,
      "type": null,
      "name": "Westfield City Sydney NSW",
      "description": null,
      "phone": "unknown",
      "email": "unknown@example.com",
      "external_id": "4665",
      "is_published": false,
      "is_permanently_closed": false,
      "address": {
        "id": 13,
        "address_line_1": "Shop 3051  Westfield Sydney City",
        "address_line_2": "Cnr Pitt St. Mall & Market St.",
        "address_line_3": null,
        "company": null,
        "latitude": null,
        "longitude": null,
        "city": "Sydney",
        "postcode": "2000",
        "state": "NSW",
        "country": "Australia",
        "notes": null,
        "is_default": false,
        "created_at": "2018-05-26 05:46:56",
        "updated_at": "2018-05-26 06:30:25"
      },
      "normal_hours": [],
      "special_hours": [],
      "tags": [],
      "created_at": "2018-05-26 05:46:56",
      "updated_at": "2018-05-26 06:30:25"
    },
    {
      "id": 13,
      "type": null,
      "name": "Chapel St South Yarra VIC",
      "description": null,
      "phone": "unknown",
      "email": "unknown@example.com",
      "external_id": "5130",
      "is_published": false,
      "is_permanently_closed": false,
      "address": {
        "id": 14,
        "address_line_1": "574A Chapel Street",
        "address_line_2": "unknown",
        "address_line_3": null,
        "company": null,
        "latitude": null,
        "longitude": null,
        "city": "South Yarra",
        "postcode": "3141",
        "state": "VIC",
        "country": "Australia",
        "notes": null,
        "is_default": false,
        "created_at": "2018-05-26 05:46:57",
        "updated_at": "2018-05-26 06:33:14"
      },
      "normal_hours": [],
      "special_hours": [],
      "tags": [],
      "created_at": "2018-05-26 05:46:57",
      "updated_at": "2018-05-26 06:33:14"
    },
    {
      "id": 14,
      "type": null,
      "name": "Myer Perth City WA",
      "description": null,
      "phone": "unknown",
      "email": "myerperth@mjbale.com",
      "external_id": "5136",
      "is_published": false,
      "is_permanently_closed": false,
      "address": {
        "id": 15,
        "address_line_1": "Myer",
        "address_line_2": "200 Murray Street",
        "address_line_3": null,
        "company": null,
        "latitude": null,
        "longitude": null,
        "city": "Perth",
        "postcode": "6000",
        "state": "WA",
        "country": "Australia",
        "notes": null,
        "is_default": false,
        "created_at": "2018-05-26 05:46:59",
        "updated_at": "2018-05-26 05:46:59"
      },
      "normal_hours": [],
      "special_hours": [],
      "tags": [],
      "created_at": "2018-05-26 05:46:59",
      "updated_at": "2018-05-26 05:46:59"
    },
    {
      "id": 15,
      "type": null,
      "name": "Warringah Mall NSW",
      "description": null,
      "phone": "unknown",
      "email": "unknown@example.com",
      "external_id": "11830",
      "is_published": false,
      "is_permanently_closed": false,
      "address": {
        "id": 16,
        "address_line_1": "Shop 2302",
        "address_line_2": "Condamine St & Old Pittwater Rd",
        "address_line_3": null,
        "company": null,
        "latitude": null,
        "longitude": null,
        "city": "Brookvale",
        "postcode": "2100",
        "state": "NSW",
        "country": "Australia",
        "notes": null,
        "is_default": false,
        "created_at": "2018-05-26 05:47:01",
        "updated_at": "2018-05-26 05:47:01"
      },
      "normal_hours": [],
      "special_hours": [],
      "tags": [],
      "created_at": "2018-05-26 05:47:01",
      "updated_at": "2018-05-26 05:47:01"
    },
    {
      "id": 16,
      "type": null,
      "name": "St Collins Lane VIC",
      "description": null,
      "phone": "unknown",
      "email": "unknown@example.com",
      "external_id": "13508",
      "is_published": false,
      "is_permanently_closed": false,
      "address": {
        "id": 17,
        "address_line_1": "Shop RL1.08 Level 1",
        "address_line_2": "St Collins Lane 260 Collins St",
        "address_line_3": null,
        "company": null,
        "latitude": null,
        "longitude": null,
        "city": "Melbourne",
        "postcode": "8007",
        "state": "VIC",
        "country": "Australia",
        "notes": null,
        "is_default": false,
        "created_at": "2018-05-26 05:47:02",
        "updated_at": "2018-05-26 05:47:02"
      },
      "normal_hours": [],
      "special_hours": [],
      "tags": [],
      "created_at": "2018-05-26 05:47:02",
      "updated_at": "2018-05-26 05:47:02"
    },
    {
      "id": 17,
      "type": null,
      "name": "Myer Highpoint VIC",
      "description": null,
      "phone": "unknown",
      "email": "unknown@example.com",
      "external_id": "11613",
      "is_published": false,
      "is_permanently_closed": false,
      "address": {
        "id": 18,
        "address_line_1": "Highpoint Shopping Centre",
        "address_line_2": "179 Rosamond Road",
        "address_line_3": null,
        "company": null,
        "latitude": null,
        "longitude": null,
        "city": "Maribyrnong",
        "postcode": "3032",
        "state": "VIC",
        "country": "Australia",
        "notes": null,
        "is_default": false,
        "created_at": "2018-05-26 05:47:04",
        "updated_at": "2018-05-26 05:47:04"
      },
      "normal_hours": [],
      "special_hours": [],
      "tags": [],
      "created_at": "2018-05-26 05:47:04",
      "updated_at": "2018-05-26 05:47:04"
    },
    {
      "id": 18,
      "type": null,
      "name": "Pacific Fair QLD",
      "description": null,
      "phone": "unknown",
      "email": "pacificfair@mjbale.com",
      "external_id": "16588",
      "is_published": false,
      "is_permanently_closed": false,
      "address": {
        "id": 19,
        "address_line_1": "Shop 2759 Lvl 1 Pacific Fair",
        "address_line_2": "Hooker Blvd",
        "address_line_3": null,
        "company": null,
        "latitude": null,
        "longitude": null,
        "city": "Broadbeach",
        "postcode": "4218",
        "state": "QLD",
        "country": "Australia",
        "notes": null,
        "is_default": false,
        "created_at": "2018-05-26 05:47:06",
        "updated_at": "2018-05-26 05:47:06"
      },
      "normal_hours": [],
      "special_hours": [],
      "tags": [],
      "created_at": "2018-05-26 05:47:06",
      "updated_at": "2018-05-26 05:47:06"
    },
    {
      "id": 19,
      "type": null,
      "name": "Birkenhead Point SC Drummoyne NSW",
      "description": null,
      "phone": "unknown",
      "email": "Birkenhead@mjbale.com",
      "external_id": "4648",
      "is_published": false,
      "is_permanently_closed": false,
      "address": {
        "id": 20,
        "address_line_1": "Shop 65 Level 2 Birkenhead Point Shopping Centre",
        "address_line_2": "Roseby Street",
        "address_line_3": null,
        "company": null,
        "latitude": null,
        "longitude": null,
        "city": "Drummoyne",
        "postcode": "2047",
        "state": "NSW",
        "country": "Australia",
        "notes": null,
        "is_default": false,
        "created_at": "2018-05-26 06:13:57",
        "updated_at": "2018-05-26 06:30:27"
      },
      "normal_hours": [],
      "special_hours": [],
      "tags": [],
      "created_at": "2018-05-26 06:13:57",
      "updated_at": "2018-05-26 06:30:27"
    },
    {
      "id": 20,
      "type": null,
      "name": "Westfield Doncaster VIC",
      "description": null,
      "phone": "unknown",
      "email": "unknown@example.com",
      "external_id": "4653",
      "is_published": false,
      "is_permanently_closed": false,
      "address": {
        "id": 21,
        "address_line_1": "Shop 1093  Level 1  Westfield Doncaster",
        "address_line_2": "619 Doncaster Road",
        "address_line_3": null,
        "company": null,
        "latitude": null,
        "longitude": null,
        "city": "Doncaster",
        "postcode": "3108",
        "state": "VIC",
        "country": "Australia",
        "notes": null,
        "is_default": false,
        "created_at": "2018-05-26 06:13:58",
        "updated_at": "2018-05-26 06:30:28"
      },
      "normal_hours": [],
      "special_hours": [],
      "tags": [],
      "created_at": "2018-05-26 06:13:58",
      "updated_at": "2018-05-26 06:30:28"
    },
    {
      "id": 21,
      "type": null,
      "name": "Myer Adelaide City SA",
      "description": null,
      "phone": "unknown",
      "email": "myerperth@mjbale.com",
      "external_id": "4657",
      "is_published": false,
      "is_permanently_closed": false,
      "address": {
        "id": 22,
        "address_line_1": "Myer  Rundle St Mall",
        "address_line_2": "22 Rundle Mall",
        "address_line_3": null,
        "company": null,
        "latitude": null,
        "longitude": null,
        "city": "Adelaide",
        "postcode": "5000",
        "state": "SA",
        "country": "Australia",
        "notes": null,
        "is_default": false,
        "created_at": "2018-05-26 06:14:00",
        "updated_at": "2018-05-26 06:30:28"
      },
      "normal_hours": [],
      "special_hours": [],
      "tags": [],
      "created_at": "2018-05-26 06:14:00",
      "updated_at": "2018-05-26 06:30:28"
    },
    {
      "id": 22,
      "type": null,
      "name": "Perth City WA",
      "description": null,
      "phone": "unknown",
      "email": "unknown@example.com",
      "external_id": "4663",
      "is_published": false,
      "is_permanently_closed": false,
      "address": {
        "id": 23,
        "address_line_1": "Shop HG109  Brookfield Place",
        "address_line_2": "125 St Georges Terrace",
        "address_line_3": null,
        "company": null,
        "latitude": null,
        "longitude": null,
        "city": "Perth",
        "postcode": "6000",
        "state": "WA",
        "country": "Australia",
        "notes": null,
        "is_default": false,
        "created_at": "2018-05-26 06:14:02",
        "updated_at": "2018-05-26 06:30:29"
      },
      "normal_hours": [],
      "special_hours": [],
      "tags": [],
      "created_at": "2018-05-26 06:14:02",
      "updated_at": "2018-05-26 06:30:29"
    },
    {
      "id": 23,
      "type": null,
      "name": "DFO Canberra ACT",
      "description": null,
      "phone": "unknown",
      "email": "dfocanberra@mjbale.com",
      "external_id": "13930",
      "is_published": false,
      "is_permanently_closed": false,
      "address": {
        "id": 24,
        "address_line_1": "Shop 140A  Canberra Outlet Centre",
        "address_line_2": "337 Canberra Avenue",
        "address_line_3": null,
        "company": null,
        "latitude": null,
        "longitude": null,
        "city": "Fyshwick",
        "postcode": "2906",
        "state": "ACT",
        "country": "Australia",
        "notes": null,
        "is_default": false,
        "created_at": "2018-05-26 06:26:45",
        "updated_at": "2018-05-26 06:30:29"
      },
      "normal_hours": [],
      "special_hours": [],
      "tags": [],
      "created_at": "2018-05-26 06:26:45",
      "updated_at": "2018-05-26 06:30:29"
    },
    {
      "id": 24,
      "type": null,
      "name": "Martin Place NSW",
      "description": null,
      "phone": "unknown",
      "email": "unknown@example.com",
      "external_id": "10989",
      "is_published": false,
      "is_permanently_closed": false,
      "address": {
        "id": 25,
        "address_line_1": "14 Martin Place",
        "address_line_2": "unknown",
        "address_line_3": null,
        "company": null,
        "latitude": null,
        "longitude": null,
        "city": "Sydney",
        "postcode": "2000",
        "state": "NSW",
        "country": "Australia",
        "notes": null,
        "is_default": false,
        "created_at": "2018-05-26 06:30:30",
        "updated_at": "2018-05-26 06:33:19"
      },
      "normal_hours": [],
      "special_hours": [],
      "tags": [],
      "created_at": "2018-05-26 06:30:30",
      "updated_at": "2018-05-26 06:33:19"
    }
  ],
  "links": {
    "first": "http://ap21-stage.omneoapp.com/api/v3/locations?page=1",
    "last": "http://ap21-stage.omneoapp.com/api/v3/locations?page=4",
    "prev": null,
    "next": "http://ap21-stage.omneoapp.com/api/v3/locations?page=2"
  },
  "meta": {
    "current_page": 1,
    "from": 1,
    "last_page": 4,
    "path": "http://ap21-stage.omneoapp.com/api/v3/locations",
    "per_page": 15,
    "to": 15,
    "total": 47
  }
}