{
  "data": [
    {
      "id": 1,
      "external_id": null,
      "title": "Mr.",
      "first_name": "Carlos",
      "last_name": "Bar",
      "full_name": "Carlos Bar",
      "email": "mertz.blanca@yahoo.com",
      "mobile_phone": "0450 551 500",
      "mobile_phone_country": "AU",
      "mobile_phone_e164": "+61450551500",
      "home_phone": null,
      "home_phone_country": null,
      "work_phone": null,
      "work_phone_country": null,
      "address": {
        "id": 4,
        "address_line_1": "123 Foo bar",
        "address_line_2": "Foo bar land",
        "address_line_3": null,
        "company": "FooBar inc.",
        "suburb": "Melbourne",
        "postcode": "3000",
        "state": "Victoria",
        "country": "Australia",
        "notes": null,
        "is_default": true,
        "created_at": "2018-04-16 05:56:30",
        "updated_at": "2018-04-18 05:57:38"
      },
      "avatar_url": "https://s3.amazonaws.com/uifaces/faces/twitter/vladzima/128.jpg",
      "gender": "female",
      "company": null,
      "occupation": null,
      "birth_year": 1985,
      "birth_month": 1,
      "birth_day": 10,
      "next_birthday": null,
      "joined_location_id": null,
      "tags": [
        "is-staff"
      ],
      "tier_handle": "my-tier",
      "created_at": "2018-03-09 03:38:32",
      "updated_at": "2018-04-18 04:14:54"
    },
    {
      "id": 2,
      "external_id": null,
      "title": "Mrs.",
      "first_name": "Shirley",
      "last_name": "Gerhold",
      "full_name": "Shirley Gerhold",
      "email": "stuart85@hotmail.com",
      "mobile_phone": "0401 222 111",
      "mobile_phone_country": "AU",
      "mobile_phone_e164": "+61401222111",
      "home_phone": null,
      "home_phone_country": null,
      "work_phone": null,
      "work_phone_country": null,
      "address": null,
      "avatar_url": null,
      "gender": null,
      "company": null,
      "occupation": null,
      "birth_year": 1996,
      "birth_month": 0,
      "birth_day": 0,
      "next_birthday": null,
      "joined_location_id": null,
      "tags": [
        "test",
        "this",
        "the",
        "best"
      ],
      "tier_handle": null,
      "created_at": "2018-03-09 03:38:32",
      "updated_at": "2018-04-29 23:29:45"
    },
    {
      "id": 3,
      "external_id": null,
      "title": "Dr.",
      "first_name": "Belle",
      "last_name": "Hunt",
      "full_name": "Belle Hunt",
      "email": "belle@gmail.com",
      "mobile_phone": "0407 443 527",
      "mobile_phone_country": "AU",
      "mobile_phone_e164": "+61407443527",
      "home_phone": null,
      "home_phone_country": null,
      "work_phone": null,
      "work_phone_country": null,
      "address": null,
      "avatar_url": "https://scontent-syd2-1.cdninstagram.com/vp/7d20c8e2e6976b3a22a08b0bbdacebcd/5B96A377/t51.2885-19/s320x320/30592946_194676074671183_4543719651321839616_n.jpg",
      "gender": null,
      "company": null,
      "occupation": null,
      "birth_year": 1955,
      "birth_month": 7,
      "birth_day": 6,
      "next_birthday": null,
      "joined_location_id": null,
      "tags": [],
      "tier_handle": "my-tier",
      "created_at": "2018-03-09 03:38:32",
      "updated_at": "2018-04-26 06:46:46"
    },
    {
      "id": 4,
      "external_id": null,
      "title": "Ms.",
      "first_name": "Harley",
      "last_name": "Beatty",
      "full_name": "Harley Beatty",
      "email": "fay.kuvalis@yahoo.com",
      "mobile_phone": "0401 222 111",
      "mobile_phone_country": "AU",
      "mobile_phone_e164": "+61401222111",
      "home_phone": null,
      "home_phone_country": null,
      "work_phone": null,
      "work_phone_country": null,
      "address": null,
      "avatar_url": null,
      "gender": null,
      "company": null,
      "occupation": null,
      "birth_year": 1961,
      "birth_month": 2,
      "birth_day": 8,
      "next_birthday": null,
      "joined_location_id": null,
      "tags": [],
      "tier_handle": null,
      "created_at": "2018-03-09 03:38:32",
      "updated_at": "2018-03-09 03:38:32"
    },
    {
      "id": 5,
      "external_id": null,
      "title": "Mrs.",
      "first_name": "Shana",
      "last_name": "Moore",
      "full_name": "Shana Moore",
      "email": "esauer@yahoo.com",
      "mobile_phone": "0401 222 111",
      "mobile_phone_country": "AU",
      "mobile_phone_e164": "+61401222111",
      "home_phone": null,
      "home_phone_country": null,
      "work_phone": null,
      "work_phone_country": null,
      "address": null,
      "avatar_url": null,
      "gender": null,
      "company": null,
      "occupation": null,
      "birth_year": 1986,
      "birth_month": 5,
      "birth_day": 2,
      "next_birthday": null,
      "joined_location_id": null,
      "tags": [],
      "tier_handle": null,
      "created_at": "2018-03-09 03:38:32",
      "updated_at": "2018-03-09 03:38:32"
    },
    {
      "id": 6,
      "external_id": null,
      "title": "Dr.",
      "first_name": "Randal",
      "last_name": "Gulgowski",
      "full_name": "Randal Gulgowski",
      "email": "dmaggio@hotmail.com",
      "mobile_phone": "0401 222 111",
      "mobile_phone_country": "AU",
      "mobile_phone_e164": "+61401222111",
      "home_phone": null,
      "home_phone_country": null,
      "work_phone": null,
      "work_phone_country": null,
      "address": null,
      "avatar_url": null,
      "gender": null,
      "company": null,
      "occupation": null,
      "birth_year": 1950,
      "birth_month": 6,
      "birth_day": 5,
      "next_birthday": null,
      "joined_location_id": null,
      "tags": [],
      "tier_handle": null,
      "created_at": "2018-03-09 03:38:32",
      "updated_at": "2018-03-09 03:38:32"
    },
    {
      "id": 7,
      "external_id": null,
      "title": "Dr.",
      "first_name": "Alia",
      "last_name": "Bartonn",
      "full_name": "Alia Bartonn",
      "email": "westley.johnson@strosin.info",
      "mobile_phone": "0401 222 111",
      "mobile_phone_country": "AU",
      "mobile_phone_e164": "+61401222111",
      "home_phone": null,
      "home_phone_country": null,
      "work_phone": null,
      "work_phone_country": null,
      "address": {
        "id": 2,
        "address_line_1": "24 Phillip St",
        "address_line_2": null,
        "address_line_3": null,
        "company": null,
        "suburb": "Heathmont",
        "postcode": "3000",
        "state": "VIC",
        "country": "Australia",
        "notes": null,
        "is_default": true,
        "created_at": "2018-03-22 05:15:08",
        "updated_at": "2018-03-22 05:15:11"
      },
      "avatar_url": null,
      "gender": null,
      "company": null,
      "occupation": null,
      "birth_year": 1982,
      "birth_month": 8,
      "birth_day": 0,
      "next_birthday": null,
      "joined_location_id": null,
      "tags": [],
      "tier_handle": null,
      "created_at": "2018-03-09 03:38:32",
      "updated_at": "2018-03-14 00:04:16"
    },
    {
      "id": 8,
      "external_id": null,
      "title": "Prof.",
      "first_name": "Marlene",
      "last_name": "Nicolas",
      "full_name": "Marlene Nicolas",
      "email": "kennedi16@gmail.com",
      "mobile_phone": "0401 222 111",
      "mobile_phone_country": "AU",
      "mobile_phone_e164": "+61401222111",
      "home_phone": null,
      "home_phone_country": null,
      "work_phone": null,
      "work_phone_country": null,
      "address": null,
      "avatar_url": null,
      "gender": null,
      "company": null,
      "occupation": null,
      "birth_year": 1995,
      "birth_month": 6,
      "birth_day": 1,
      "next_birthday": null,
      "joined_location_id": null,
      "tags": [],
      "tier_handle": null,
      "created_at": "2018-03-09 03:38:32",
      "updated_at": "2018-03-09 03:38:32"
    },
    {
      "id": 9,
      "external_id": null,
      "title": "Dr.",
      "first_name": "Yadira",
      "last_name": "McLaughlin",
      "full_name": "Yadira McLaughlin",
      "email": "ahmed.daugherty@gmail.com",
      "mobile_phone": "0401 222 111",
      "mobile_phone_country": "AU",
      "mobile_phone_e164": "+61401222111",
      "home_phone": null,
      "home_phone_country": null,
      "work_phone": null,
      "work_phone_country": null,
      "address": null,
      "avatar_url": null,
      "gender": null,
      "company": null,
      "occupation": null,
      "birth_year": 1985,
      "birth_month": 9,
      "birth_day": 1,
      "next_birthday": null,
      "joined_location_id": null,
      "tags": [],
      "tier_handle": null,
      "created_at": "2018-03-09 03:38:32",
      "updated_at": "2018-03-09 03:38:32"
    },
    {
      "id": 10,
      "external_id": null,
      "title": "Mr.",
      "first_name": "Hanna",
      "last_name": "Rowe",
      "full_name": "Hanna Rowe",
      "email": "gokuneva@gmail.com",
      "mobile_phone": "0401 222 111",
      "mobile_phone_country": "AU",
      "mobile_phone_e164": "+61401222111",
      "home_phone": null,
      "home_phone_country": null,
      "work_phone": null,
      "work_phone_country": null,
      "address": null,
      "avatar_url": null,
      "gender": null,
      "company": null,
      "occupation": null,
      "birth_year": 1974,
      "birth_month": 4,
      "birth_day": 3,
      "next_birthday": null,
      "joined_location_id": null,
      "tags": [],
      "tier_handle": null,
      "created_at": "2018-03-09 03:38:33",
      "updated_at": "2018-03-09 03:38:33"
    },
    {
      "id": 11,
      "external_id": null,
      "title": "Mr.",
      "first_name": "Marjorie",
      "last_name": "Sanford",
      "full_name": "Marjorie Sanford",
      "email": "alexandrea.leannon@yahoo.com",
      "mobile_phone": "0401 222 111",
      "mobile_phone_country": "AU",
      "mobile_phone_e164": "+61401222111",
      "home_phone": null,
      "home_phone_country": null,
      "work_phone": null,
      "work_phone_country": null,
      "address": null,
      "avatar_url": null,
      "gender": null,
      "company": null,
      "occupation": null,
      "birth_year": 1978,
      "birth_month": 8,
      "birth_day": 2,
      "next_birthday": null,
      "joined_location_id": null,
      "tags": [],
      "tier_handle": null,
      "created_at": "2018-03-09 03:38:33",
      "updated_at": "2018-03-09 03:38:33"
    },
    {
      "id": 12,
      "external_id": null,
      "title": "Dr.",
      "first_name": "Dario",
      "last_name": "Feil",
      "full_name": "Dario Feil",
      "email": "medhurst.mabel@price.org",
      "mobile_phone": "0401 222 111",
      "mobile_phone_country": "AU",
      "mobile_phone_e164": "+61401222111",
      "home_phone": null,
      "home_phone_country": null,
      "work_phone": null,
      "work_phone_country": null,
      "address": null,
      "avatar_url": null,
      "gender": null,
      "company": null,
      "occupation": null,
      "birth_year": 1967,
      "birth_month": 2,
      "birth_day": 6,
      "next_birthday": null,
      "joined_location_id": null,
      "tags": [],
      "tier_handle": null,
      "created_at": "2018-03-09 03:38:33",
      "updated_at": "2018-03-09 03:38:33"
    },
    {
      "id": 13,
      "external_id": null,
      "title": "Mr.",
      "first_name": "Marcus",
      "last_name": "Runolfsson",
      "full_name": "Marcus Runolfsson",
      "email": "rosanna.renner@walter.biz",
      "mobile_phone": "0401 222 111",
      "mobile_phone_country": "AU",
      "mobile_phone_e164": "+61401222111",
      "home_phone": null,
      "home_phone_country": null,
      "work_phone": null,
      "work_phone_country": null,
      "address": null,
      "avatar_url": null,
      "gender": null,
      "company": null,
      "occupation": null,
      "birth_year": 1966,
      "birth_month": 4,
      "birth_day": 3,
      "next_birthday": null,
      "joined_location_id": null,
      "tags": [],
      "tier_handle": null,
      "created_at": "2018-03-09 03:38:33",
      "updated_at": "2018-03-09 03:38:33"
    },
    {
      "id": 14,
      "external_id": null,
      "title": "Miss",
      "first_name": "Destiney",
      "last_name": "Schultz",
      "full_name": "Destiney Schultz",
      "email": "declan.hartmann@gmail.com",
      "mobile_phone": "0401 222 111",
      "mobile_phone_country": "AU",
      "mobile_phone_e164": "+61401222111",
      "home_phone": null,
      "home_phone_country": null,
      "work_phone": null,
      "work_phone_country": null,
      "address": null,
      "avatar_url": null,
      "gender": null,
      "company": null,
      "occupation": null,
      "birth_year": 1973,
      "birth_month": 8,
      "birth_day": 4,
      "next_birthday": null,
      "joined_location_id": null,
      "tags": [],
      "tier_handle": null,
      "created_at": "2018-03-09 03:38:33",
      "updated_at": "2018-03-09 03:38:33"
    },
    {
      "id": 16,
      "external_id": null,
      "title": "Prof.",
      "first_name": "Travon",
      "last_name": "Jacobs",
      "full_name": "Travon Jacobs",
      "email": "bart.parisian@dach.com",
      "mobile_phone": "0401 222 111",
      "mobile_phone_country": "AU",
      "mobile_phone_e164": "+61401222111",
      "home_phone": null,
      "home_phone_country": null,
      "work_phone": null,
      "work_phone_country": null,
      "address": null,
      "avatar_url": null,
      "gender": null,
      "company": null,
      "occupation": null,
      "birth_year": 1981,
      "birth_month": 1,
      "birth_day": 2,
      "next_birthday": null,
      "joined_location_id": null,
      "tags": [],
      "tier_handle": null,
      "created_at": "2018-03-22 02:52:32",
      "updated_at": "2018-03-22 02:52:32"
    }
  ],
  "links": {
    "first": "http://ap21-stage.omneoapp.com/api/v3/profiles?page=1",
    "last": "http://ap21-stage.omneoapp.com/api/v3/profiles?page=3",
    "prev": null,
    "next": "http://ap21-stage.omneoapp.com/api/v3/profiles?page=2"
  },
  "meta": {
    "current_page": 1,
    "from": 1,
    "last_page": 3,
    "path": "http://ap21-stage.omneoapp.com/api/v3/profiles",
    "per_page": 15,
    "to": 15,
    "total": 35
  }
}